<?xml version="1.0" encoding="utf-8"?>
<!-- Generator: Adobe Illustrator 18.0.0, SVG Export Plug-In . SVG Version: 6.00 Build 0)  -->
<!DOCTYPE svg PUBLIC "-//W3C//DTD SVG 1.1//EN" "http://www.w3.org/Graphics/SVG/1.1/DTD/svg11.dtd">
<svg version="1.1" id="Capa_1" xmlns="http://www.w3.org/2000/svg" xmlns:xlink="http://www.w3.org/1999/xlink" x="0px" y="0px"
	 viewBox="0 0 768 1024" enable-background="new 0 0 768 1024" xml:space="preserve">
<text transform="matrix(0.7071 -0.7071 0.7071 0.7071 103.0785 597.3699)" opacity="0.3"><tspan x="0" y="0" font-family="'MyriadPro-Regular'" font-size="126.5763">Hecho por:</tspan><tspan x="-110.7" y="151.9" font-family="'MyriadPro-Regular'" font-size="126.5763">Mariana Forero</tspan><tspan x="71.9" y="303.8" font-family="'MyriadPro-BoldCond'" font-size="126.5763">#SePuede</tspan></text>
</svg>
